16
Generated by PyFraME
C         -0.76400        0.30600       -0.81800
C          0.76600        0.33600       -1.14100
N          1.15000       -1.04700       -1.07600
C          0.11900       -1.87800       -0.66200
N         -0.99300       -1.06700       -0.42900
N          1.29900        1.21000       -0.12100
C          0.30700        1.84100        0.61900
N         -0.90900        1.30000        0.21100
O          0.46000        2.72800        1.42300
O          0.15300       -3.08100       -0.57300
H         -1.40200        0.56500       -1.68600
H          0.99500        0.74300       -2.14600
H          2.03398       -1.41797       -1.42436
H         -1.92221       -1.47983       -0.34814
H          2.25684        1.56062       -0.11959
H         -1.80089        1.66825        0.54165
